<svg xmlns="http://www.w3.org/2000/svg" width="16" height="16" fill="currentColor" viewBox="0 0 16 16">
  <path d="M2.167 3.286a.424.424 0 0 0-.417.428v8.572c0 .235.188.428.417.428h11.666c.23 0 .417-.193.417-.428V3.714a.424.424 0 0 0-.417-.428H2.167ZM.5 3.714C.5 2.77 1.247 2 2.167 2h11.666c.92 0 1.667.769 1.667 1.714v8.572c0 .945-.747 1.714-1.667 1.714H2.167C1.247 14 .5 13.231.5 12.286V3.714ZM3 5.43a.87.87 0 0 1 .244-.607.822.822 0 0 1 .59-.25c.22 0 .432.09.589.25a.87.87 0 0 1 .244.607.87.87 0 0 1-.244.606.822.822 0 0 1-.59.25.822.822 0 0 1-.589-.25A.87.87 0 0 1 3 5.429Zm2.708 0c0-.357.279-.643.625-.643h5.834c.346 0 .625.286.625.643a.633.633 0 0 1-.625.642H6.333a.633.633 0 0 1-.625-.642Zm0 2.571c0-.356.279-.643.625-.643h5.834c.346 0 .625.287.625.643a.633.633 0 0 1-.625.643H6.333A.633.633 0 0 1 5.708 8Zm0 2.571c0-.356.279-.642.625-.642h5.834c.346 0 .625.286.625.642a.633.633 0 0 1-.625.643H6.333a.633.633 0 0 1-.625-.643ZM3.833 8.857a.822.822 0 0 1-.589-.25A.87.87 0 0 1 3 8a.87.87 0 0 1 .244-.606.822.822 0 0 1 .59-.251c.22 0 .432.09.589.25A.87.87 0 0 1 4.667 8a.87.87 0 0 1-.244.606.822.822 0 0 1-.59.251ZM3 10.571a.87.87 0 0 1 .244-.606.822.822 0 0 1 .59-.25c.22 0 .432.09.589.25a.87.87 0 0 1 .244.606.87.87 0 0 1-.244.607.822.822 0 0 1-.59.25.822.822 0 0 1-.589-.25A.87.87 0 0 1 3 10.57Z"/>
</svg>
