<svg xmlns="http://www.w3.org/2000/svg" width="16" height="16" fill="currentColor" viewBox="0 0 16 16">
  <g clip-path="url(#a)">
    <path d="M9.077 2.077a1.076 1.076 0 1 0-2.154 0v4.846H2.077a1.076 1.076 0 1 0 0 2.154h4.846v4.846a1.076 1.076 0 1 0 2.154 0V9.077h4.846a1.076 1.076 0 1 0 0-2.154H9.077V2.077Z"/>
  </g>
  <defs>
    <clipPath id="a">
      <path d="M0 0h16v16H0z"/>
    </clipPath>
  </defs>
</svg>
