<svg xmlns="http://www.w3.org/2000/svg" width="16" height="16" fill="currentColor" viewBox="0 0 16 16">
  <path d="M1 12.333c0 .48.391.867.875.867h1.496a2.184 2.184 0 0 0 2.004 1.3c.897 0 1.668-.534 2.004-1.3h6.746a.87.87 0 0 0 .875-.867.87.87 0 0 0-.875-.866H7.379a2.184 2.184 0 0 0-2.004-1.3c-.897 0-1.668.533-2.004 1.3H1.875a.87.87 0 0 0-.875.866Zm3.5 0c0-.23.092-.45.256-.613a.88.88 0 0 1 1.238 0 .862.862 0 0 1 0 1.226.88.88 0 0 1-1.238 0 .863.863 0 0 1-.256-.613ZM9.75 8c0-.23.092-.45.256-.613a.88.88 0 0 1 1.238 0 .863.863 0 0 1 0 1.226.88.88 0 0 1-1.238 0A.862.862 0 0 1 9.75 8Zm.875-2.167c-.897 0-1.668.534-2.004 1.3H1.875A.87.87 0 0 0 1 8c0 .48.391.867.875.867h6.746a2.184 2.184 0 0 0 2.004 1.3c.897 0 1.668-.534 2.004-1.3h1.496A.87.87 0 0 0 15 8a.87.87 0 0 0-.875-.867h-1.496a2.184 2.184 0 0 0-2.004-1.3Zm-4.375-1.3a.88.88 0 0 1-.619-.254.863.863 0 0 1 0-1.225.88.88 0 0 1 1.238 0 .863.863 0 0 1 0 1.225.88.88 0 0 1-.619.254ZM8.254 2.8A2.184 2.184 0 0 0 6.25 1.5c-.897 0-1.668.534-2.004 1.3H1.875A.87.87 0 0 0 1 3.667a.87.87 0 0 0 .875.866h2.37a2.184 2.184 0 0 0 2.005 1.3c.897 0 1.668-.533 2.004-1.3h5.871A.87.87 0 0 0 15 3.667a.87.87 0 0 0-.875-.867h-5.87Z"/>
</svg>
