<svg xmlns="http://www.w3.org/2000/svg" width="16" height="16" fill="currentColor" viewBox="0 0 16 16">
  <path d="M2.857 13.594c0 .373.136.73.377.994.24.264.568.412.909.412h7.714c.341 0 .668-.148.91-.412a1.48 1.48 0 0 0 .376-.994V3.75H2.857v9.844Zm7.286-7.5c0-.125.045-.244.125-.332a.41.41 0 0 1 .303-.137.41.41 0 0 1 .303.137c.08.088.126.207.126.332v6.562a.492.492 0 0 1-.126.332.411.411 0 0 1-.303.137.411.411 0 0 1-.303-.137.492.492 0 0 1-.125-.332V6.094Zm-2.572 0c0-.125.046-.244.126-.332A.41.41 0 0 1 8 5.625a.41.41 0 0 1 .303.137c.08.088.126.207.126.332v6.562a.492.492 0 0 1-.126.332.411.411 0 0 1-.303.137.411.411 0 0 1-.303-.137.492.492 0 0 1-.126-.332V6.094ZM5 6.094a.49.49 0 0 1 .126-.332.41.41 0 0 1 .303-.137.41.41 0 0 1 .303.137c.08.088.125.207.125.332v6.562a.492.492 0 0 1-.125.332.411.411 0 0 1-.303.137.411.411 0 0 1-.303-.137.492.492 0 0 1-.126-.332V6.094ZM13.572.938h-3.215L10.105.39a.685.685 0 0 0-.237-.285A.603.603 0 0 0 9.53 0H6.468a.596.596 0 0 0-.338.105.677.677 0 0 0-.235.285l-.252.548H2.429a.41.41 0 0 0-.303.137.492.492 0 0 0-.126.331v.938c0 .124.045.243.126.331a.41.41 0 0 0 .303.138h11.143a.41.41 0 0 0 .303-.138.492.492 0 0 0 .125-.331v-.938a.492.492 0 0 0-.126-.331.41.41 0 0 0-.303-.137Z"/>
</svg>
